{
  "project_info": {
    "project_number": "171832678069",
    "firebase_url": "https://welli216.firebaseio.com",
    "project_id": "welli216",
    "storage_bucket": "welli216.appspot.com"
  },
  "client": [
    {
      "client_info": {
        "mobilesdk_app_id": "1:171832678069:android:b76d5a359a7254d1b150fc",
        "android_client_info": {
          "package_name": "edu.lehigh.cse216.welli"
        }
      },
      "oauth_client": [
        {
          "client_id": "171832678069-07fo24nldkh2tstkmtuetfkhagvhpob0.apps.googleusercontent.com",
          "client_type": 1,
          "android_info": {
            "package_name": "edu.lehigh.cse216.welli",
            "certificate_hash": "307bd15ed459526428ccbb9c3ac3720f76cd8441"
          }
        },
        {
          "client_id": "171832678069-09ue7ma0a6edt7m8ujrmntrsvl2krlp5.apps.googleusercontent.com",
          "client_type": 3
        }
      ],
      "api_key": [
        {
          "current_key": "AIzaSyCey7WpzHPamKAQ7LsAZaPZMfCZhK-bgN0"
        }
      ],
      "services": {
        "appinvite_service": {
          "other_platform_oauth_client": [
            {
              "client_id": "171832678069-09ue7ma0a6edt7m8ujrmntrsvl2krlp5.apps.googleusercontent.com",
              "client_type": 3
            }
          ]
        }
      }
    }
  ],
  "configuration_version": "1"
}